[
    {
        "fullName": "Developmental Bank of Singapore",
        "shortName": "DBS"
    },
    {
        "fullName": "United Overseas Bank",
        "shortName": "UOB"
    },
    {
        "fullName": "Standard Chartered Bank",
        "shortName": "SC"
    },
    {
        "fullName": "Oversea-Chinese Banking Corporation",
        "shortName": "OCBC"
    },
    {
        "fullName": "United Overseas Bank",
        "shortName": "UOB"
    },
    {
        "fullName": "Citibank Singapore",
        "shortName": "Citi"
    },
    {
        "fullName": "HSBC",
        "shortName": "HSBC"
    },
    {
        "fullName": "Barclays Bank",
        "shortName": "BarclaysBank"
    }
]